<?xml version="1.0" encoding="utf-8"?>
<!-- Generator: Adobe Illustrator 16.0.0, SVG Export Plug-In . SVG Version: 6.00 Build 0)  -->
<!DOCTYPE svg PUBLIC "-//W3C//DTD SVG 1.1//EN" "http://www.w3.org/Graphics/SVG/1.1/DTD/svg11.dtd">
<svg version="1.1" id="Capa_1" xmlns="http://www.w3.org/2000/svg" xmlns:xlink="http://www.w3.org/1999/xlink" x="0px" y="0px"
	 width="500px" height="500px" viewBox="0 0 500 500" enable-background="new 0 0 500 500" xml:space="preserve">
<g>
	<g>
		<path fill="#FFFFFF" d="M492.676,437.985h-30.76V171.12l20.387,7.613c0.057,0.021,0.113,0.035,0.17,0.055
			c0.118,0.042,0.237,0.081,0.357,0.116c0.112,0.032,0.225,0.059,0.338,0.086c0.104,0.024,0.209,0.052,0.315,0.071
			c0.159,0.03,0.317,0.053,0.477,0.073c0.063,0.008,0.127,0.02,0.191,0.024c0.238,0.023,0.476,0.038,0.712,0.038
			c0.023,0,0.048-0.006,0.072-0.006c0.307-0.003,0.608-0.028,0.905-0.068c0.083-0.012,0.164-0.023,0.246-0.038
			c0.661-0.11,1.289-0.309,1.877-0.585c0.056-0.025,0.108-0.052,0.163-0.078c0.297-0.147,0.585-0.31,0.857-0.496
			c0.018-0.012,0.032-0.024,0.05-0.037c0.249-0.173,0.483-0.363,0.709-0.565c0.062-0.055,0.122-0.108,0.183-0.165
			c0.226-0.218,0.439-0.445,0.636-0.689c0.043-0.053,0.081-0.108,0.122-0.163c0.179-0.232,0.343-0.476,0.491-0.73
			c0.026-0.045,0.057-0.088,0.082-0.134c0.167-0.299,0.31-0.611,0.435-0.935c0.01-0.024,0.024-0.048,0.034-0.073
			c0.019-0.05,0.03-0.1,0.048-0.15c0.049-0.14,0.095-0.281,0.135-0.426c0.029-0.104,0.056-0.207,0.08-0.311
			c0.028-0.123,0.056-0.245,0.077-0.37c0.023-0.132,0.044-0.263,0.06-0.394c0.013-0.1,0.023-0.198,0.032-0.3
			c0.013-0.155,0.021-0.311,0.022-0.466c0.001-0.049,0.008-0.097,0.008-0.146v-29.297c0-0.038-0.005-0.074-0.006-0.112
			c-0.002-0.157-0.012-0.313-0.023-0.469c-0.007-0.094-0.015-0.188-0.025-0.281c-0.017-0.135-0.037-0.268-0.062-0.4
			c-0.02-0.112-0.039-0.224-0.063-0.335c-0.024-0.108-0.055-0.217-0.083-0.324c-0.035-0.128-0.07-0.255-0.111-0.38
			c-0.029-0.091-0.064-0.18-0.099-0.269c-0.05-0.134-0.102-0.268-0.158-0.396c-0.038-0.084-0.08-0.167-0.121-0.25
			c-0.062-0.126-0.123-0.252-0.191-0.373c-0.052-0.092-0.107-0.18-0.163-0.268c-0.065-0.106-0.132-0.214-0.203-0.316
			c-0.069-0.102-0.146-0.198-0.222-0.296c-0.064-0.084-0.13-0.17-0.198-0.252c-0.089-0.104-0.184-0.206-0.278-0.307
			c-0.064-0.067-0.128-0.138-0.194-0.202c-0.102-0.101-0.209-0.194-0.316-0.288c-0.071-0.063-0.143-0.125-0.216-0.185
			c-0.104-0.083-0.213-0.162-0.321-0.24c-0.089-0.063-0.177-0.127-0.268-0.187c-0.099-0.063-0.198-0.122-0.301-0.183
			c-0.112-0.065-0.226-0.131-0.344-0.191c-0.088-0.045-0.178-0.087-0.267-0.128c-0.137-0.063-0.274-0.125-0.415-0.181
			c-0.038-0.015-0.073-0.033-0.111-0.048L252.072,47.819c-0.086-0.032-0.173-0.054-0.26-0.082c-0.068-0.022-0.138-0.045-0.207-0.065
			c-0.316-0.095-0.634-0.175-0.953-0.225c-0.017-0.003-0.031-0.005-0.048-0.007c-0.319-0.05-0.639-0.068-0.956-0.075
			c-0.047-0.001-0.091-0.011-0.138-0.011c-0.064,0-0.129,0.007-0.192,0.009c-0.083,0.002-0.166,0.006-0.248,0.011
			c-0.149,0.01-0.299,0.022-0.447,0.042c-0.079,0.01-0.158,0.02-0.237,0.031c-0.145,0.022-0.288,0.051-0.431,0.083
			c-0.085,0.019-0.17,0.036-0.255,0.058c-0.123,0.032-0.245,0.069-0.367,0.108c-0.104,0.032-0.209,0.063-0.312,0.102
			c-0.025,0.01-0.053,0.017-0.078,0.025L137.217,88.976c-1.836,0.684-3.291,2.042-4.102,3.818c-0.811,1.787-0.878,3.779-0.185,5.605
			c1.064,2.842,3.818,4.756,6.855,4.756c0.879,0,1.748-0.156,2.568-0.469L249.52,62.505l228.022,85.154v13.66L252.073,77.117
			c-0.028-0.011-0.058-0.018-0.085-0.026c-0.138-0.05-0.276-0.091-0.416-0.132c-0.094-0.027-0.186-0.059-0.28-0.082
			c-0.138-0.034-0.277-0.061-0.418-0.087c-0.098-0.019-0.193-0.041-0.29-0.055c-0.138-0.021-0.275-0.031-0.414-0.044
			c-0.101-0.01-0.2-0.022-0.301-0.027c-0.133-0.007-0.266-0.003-0.4-0.003c-0.104,0.001-0.211-0.002-0.315,0.003
			c-0.124,0.007-0.248,0.021-0.372,0.034c-0.115,0.012-0.23,0.021-0.345,0.037c-0.11,0.017-0.221,0.041-0.331,0.063
			c-0.128,0.024-0.256,0.049-0.382,0.08c-0.099,0.024-0.194,0.057-0.292,0.086c-0.139,0.04-0.275,0.081-0.41,0.13
			c-0.027,0.011-0.056,0.017-0.083,0.026L22.459,161.303V147.65l92.463-34.682c1.836-0.684,3.291-2.041,4.102-3.818
			c0.811-1.787,0.879-3.779,0.185-5.605c-1.064-2.841-3.817-4.755-6.855-4.755c-0.879,0-1.738,0.155-2.568,0.468l-97.217,36.455
			c-0.045,0.017-0.086,0.039-0.129,0.057c-0.128,0.051-0.252,0.105-0.376,0.162c-0.093,0.044-0.185,0.086-0.274,0.133
			c-0.117,0.061-0.231,0.125-0.346,0.191c-0.1,0.058-0.196,0.115-0.291,0.177c-0.094,0.062-0.185,0.125-0.274,0.189
			c-0.108,0.077-0.217,0.156-0.32,0.239c-0.071,0.058-0.14,0.116-0.209,0.177c-0.112,0.098-0.224,0.196-0.33,0.301
			c-0.06,0.058-0.114,0.116-0.171,0.176c-0.105,0.11-0.21,0.222-0.309,0.339c-0.058,0.068-0.111,0.14-0.166,0.209
			c-0.088,0.111-0.175,0.224-0.256,0.341c-0.062,0.09-0.118,0.183-0.178,0.274c-0.064,0.103-0.131,0.206-0.19,0.313
			c-0.062,0.111-0.118,0.225-0.176,0.34c-0.034,0.071-0.075,0.14-0.108,0.212c-0.014,0.028-0.021,0.059-0.034,0.086
			c-0.053,0.119-0.099,0.241-0.145,0.364c-0.04,0.105-0.082,0.211-0.116,0.318c-0.033,0.102-0.061,0.205-0.089,0.308
			c-0.039,0.14-0.078,0.278-0.108,0.42c-0.014,0.066-0.023,0.134-0.036,0.2c-0.035,0.185-0.064,0.369-0.085,0.555
			c-0.004,0.033-0.006,0.066-0.009,0.102c-0.021,0.219-0.032,0.438-0.033,0.657c0,0.008-0.001,0.017-0.001,0.023v29.297
			c0,0.054,0.007,0.104,0.008,0.158c0.004,0.15,0.011,0.302,0.022,0.452c0.009,0.104,0.021,0.21,0.034,0.314
			c0.017,0.126,0.034,0.253,0.058,0.38c0.023,0.129,0.052,0.256,0.081,0.384c0.023,0.1,0.049,0.2,0.077,0.3
			c0.042,0.147,0.088,0.292,0.139,0.436c0.019,0.05,0.029,0.1,0.048,0.148c0.01,0.024,0.022,0.046,0.032,0.069
			c0.125,0.322,0.269,0.635,0.436,0.933c0.026,0.05,0.058,0.095,0.086,0.142c0.148,0.251,0.311,0.491,0.486,0.722
			c0.042,0.055,0.081,0.111,0.124,0.166c0.195,0.241,0.408,0.468,0.632,0.683c0.063,0.06,0.127,0.115,0.19,0.173
			c0.223,0.199,0.454,0.387,0.699,0.557c0.021,0.014,0.037,0.029,0.057,0.042c0.27,0.184,0.557,0.344,0.852,0.491
			c0.057,0.028,0.112,0.056,0.171,0.082c0.586,0.273,1.212,0.471,1.869,0.582c0.083,0.015,0.165,0.026,0.249,0.038
			c0.296,0.04,0.596,0.065,0.903,0.068c0.023,0,0.048,0.006,0.072,0.006c0.237,0,0.475-0.015,0.714-0.038
			c0.063-0.006,0.125-0.018,0.188-0.024c0.16-0.021,0.32-0.043,0.481-0.074c0.105-0.021,0.21-0.046,0.313-0.07
			c0.113-0.027,0.226-0.055,0.34-0.088c0.123-0.035,0.243-0.076,0.363-0.118c0.057-0.02,0.113-0.033,0.17-0.055l19.404-7.276
			v266.532H7.324c-4.046,0-7.324,3.278-7.324,7.324s3.278,7.324,7.324,7.324h36.961c0.051,0.001,0.1,0.008,0.15,0.008
			c0.052,0,0.101-0.007,0.15-0.008H83.28c0.069,0.002,0.138,0.011,0.208,0.011h58.6h0.004h58.6c4.046,0,7.324-3.278,7.324-7.324
			v-58.604c0-4.046-3.278-7.324-7.324-7.324h-21.973v-51.274c0-4.046-3.278-7.324-7.324-7.324h-21.979v-51.271
			c0-4.045-3.278-7.324-7.324-7.324H90.813v-23.925h317.396v23.925h-51.275c-4.046,0-7.324,3.279-7.324,7.324v51.271h-21.979
			c-4.046,0-7.324,3.278-7.324,7.324v51.274h-21.973c-4.046,0-7.324,3.278-7.324,7.324v58.604c0,4.046,3.278,7.324,7.324,7.324h58.6
			h0.004h58.6c0.07,0,0.139-0.009,0.208-0.011h38.696c0.051,0.001,0.1,0.008,0.15,0.008c0.052,0,0.1-0.007,0.15-0.008h37.934
			c4.046,0,7.324-3.278,7.324-7.324C500,441.264,496.722,437.985,492.676,437.985z M349.609,437.996h-43.951V394.04h21.859
			c0.038,0,0.075,0.006,0.113,0.006h21.979V437.996z M356.938,379.392h-0.004h-21.979v-43.95h21.79
			c0.063,0.002,0.125,0.01,0.188,0.01h21.977v43.94H356.938z M408.209,437.996h-43.947v-43.95l0,0h21.973
			c0.038,0,0.075-0.006,0.113-0.006h21.861V437.996z M408.209,379.392h-14.65v-43.94h14.65V379.392z M408.209,320.803h-21.786
			c-0.063-0.002-0.125-0.01-0.188-0.01h-21.977v-43.946h43.951V320.803z M134.764,437.996H90.813V394.04h21.865
			c0.038,0,0.075,0.006,0.113,0.006h21.973V437.996L134.764,437.996z M90.813,379.392v-43.94h14.654v43.94H90.813z M171.508,394.039
			h21.859v43.956h-43.951v-43.95h21.979C171.433,394.045,171.47,394.039,171.508,394.039z M142.28,335.441h21.79v43.95h-21.979
			h-0.004h-21.973v-43.94h21.977C142.155,335.451,142.218,335.443,142.28,335.441z M134.768,276.847v43.946h-21.977
			c-0.063,0-0.126,0.008-0.188,0.01h-21.79v-43.956H134.768L134.768,276.847z M408.209,223.625H90.813v-15.134h317.396V223.625z
			 M447.268,437.985h-24.406v-51.27c0-0.025-0.004-0.05-0.004-0.075v-58.438c0-0.024,0.004-0.05,0.004-0.075v-58.604
			c0-0.025-0.004-0.05-0.004-0.075v-68.28c0-4.046-3.278-7.324-7.324-7.324H83.488c-4.046,0-7.324,3.278-7.324,7.324v68.355v58.604
			v58.589v51.27H51.76V165.959L249.516,91.8l197.752,73.851V437.985z"/>
	</g>
</g>
</svg>
