<?xml version="1.0" encoding="utf-8"?>
<!-- Generator: Adobe Illustrator 16.0.0, SVG Export Plug-In . SVG Version: 6.00 Build 0)  -->
<!DOCTYPE svg PUBLIC "-//W3C//DTD SVG 1.1//EN" "http://www.w3.org/Graphics/SVG/1.1/DTD/svg11.dtd">
<svg version="1.1" id="Layer_1" xmlns="http://www.w3.org/2000/svg" xmlns:xlink="http://www.w3.org/1999/xlink" x="0px" y="0px"
	 width="1080px" height="1850px" viewBox="0 0 1080 1850" enable-background="new 0 0 1080 1850" xml:space="preserve">
<rect x="-4.78" y="-13.826" fill="#015673" width="1091.78" height="1887.826"/>
<g>
	<rect x="-59.364" y="1716.663" fill="#7894A2" width="26.207" height="74.131"/>
	<rect x="-68.555" y="1733.769" fill="#7894A2" width="13.791" height="57.025"/>
	<rect x="-38.212" y="1738.158" fill="#7894A2" width="18.848" height="52.636"/>
	<rect x="-24.883" y="1702.19" fill="#7894A2" width="41.38" height="88.604"/>
	<rect x="54.411" y="1727.846" fill="#7894A2" width="279.042" height="62.948"/>
	<rect x="77.881" y="1666.984" fill="#7894A2" width="41.384" height="123.81"/>
	<rect x="130.945" y="1616.202" fill="#7894A2" width="41.378" height="174.592"/>
	<rect x="151.635" y="1497.494" fill="#7894A2" width="41.376" height="293.3"/>
	<rect x="288.108" y="1616.202" fill="#7894A2" width="41.381" height="174.592"/>
	<rect x="403.208" y="1666.984" fill="#7894A2" width="49.018" height="123.81"/>
	<polygon fill="#7894A2" points="483.686,1790.794 420.763,1790.794 420.763,1567.261 451.324,1567.261 483.686,1596.418 	"/>
	<polygon fill="#7894A2" points="410.845,1790.794 369.466,1790.794 369.466,1616.202 385.838,1616.202 410.845,1644.144 	"/>
	<rect x="308.799" y="1497.494" fill="#7894A2" width="70.492" height="293.3"/>
	<rect x="318.622" y="1488.122" fill="#7894A2" width="50.844" height="46.617"/>
	<rect x="326.263" y="1473.544" fill="#7894A2" width="35.564" height="37.888"/>
	<rect x="207.604" y="1418.156" fill="#7894A2" width="35.569" height="37.886"/>
	<rect x="166.916" y="1454.8" fill="#7894A2" width="41.376" height="335.994"/>
	<rect x="187.604" y="1426.687" fill="#7894A2" width="62.899" height="364.107"/>
	<rect x="226.893" y="1488.122" fill="#7894A2" width="34.523" height="302.672"/>
	<rect x="244.157" y="1592.254" fill="#7894A2" width="34.524" height="198.54"/>
	<rect x="483.686" y="1607.796" fill="#7894A2" width="36.131" height="182.998"/>
	<rect x="532.558" y="1558.293" fill="#7894A2" width="31.057" height="23.639"/>
	<rect x="497.028" y="1581.158" fill="#7894A2" width="36.13" height="209.636"/>
	<rect x="515.092" y="1563.617" fill="#7894A2" width="54.922" height="227.177"/>
	<rect x="549.398" y="1601.947" fill="#7894A2" width="30.145" height="188.847"/>
	<rect x="564.472" y="1666.917" fill="#7894A2" width="30.145" height="123.877"/>
	<rect x="594.616" y="1622.796" fill="#7894A2" width="113.92" height="167.998"/>
	<rect x="82.675" y="1655.228" fill="#7894A2" width="31.799" height="42.092"/>
	<polygon fill="#7894A2" points="62.208,1790.794 13.278,1790.794 13.278,1603.845 47.868,1627.169 62.208,1627.169 	"/>
	<rect x="719.589" y="1732.834" fill="#7894A2" width="29.409" height="57.96"/>
	<rect x="700.274" y="1746.209" fill="#7894A2" width="38.099" height="44.585"/>
	<rect x="745.059" y="1700.902" fill="#7894A2" width="15.664" height="89.892"/>
	<rect x="756.142" y="1691.863" fill="#7894A2" width="34.385" height="98.931"/>
	<rect x="787.847" y="1676.947" fill="#7894A2" width="40.66" height="113.847"/>
	<rect x="623.129" y="1592.938" fill="#7894A2" width="70.492" height="197.856"/>
	<rect x="632.951" y="1586.616" fill="#7894A2" width="50.845" height="31.445"/>
	<rect x="640.593" y="1576.779" fill="#7894A2" width="35.563" height="25.559"/>
	<rect x="792.943" y="1670.003" fill="#7894A2" width="28.375" height="19.724"/>
	<rect x="425.533" y="1558.494" fill="#7894A2" width="24.464" height="27.272"/>
</g>
<g>
	<rect x="668.911" y="1716.663" fill="#7894A2" width="26.746" height="74.131"/>
	<rect x="659.527" y="1733.769" fill="#7894A2" width="14.075" height="57.025"/>
	<rect x="690.496" y="1738.158" fill="#7894A2" width="19.235" height="52.636"/>
	<rect x="704.1" y="1702.19" fill="#7894A2" width="42.23" height="88.604"/>
	<rect x="785.022" y="1727.846" fill="#7894A2" width="284.768" height="62.948"/>
	<rect x="808.974" y="1666.984" fill="#7894A2" width="42.232" height="123.81"/>
	<rect x="863.128" y="1616.202" fill="#7894A2" width="42.228" height="174.592"/>
	<rect x="884.243" y="1497.494" fill="#7894A2" width="42.224" height="293.3"/>
	<rect x="1023.519" y="1616.202" fill="#7894A2" width="42.229" height="174.592"/>
	<polygon fill="#7894A2" points="1148.777,1790.794 1106.547,1790.794 1106.547,1616.202 1123.257,1616.202 1148.777,1644.144 	"/>
	<rect x="1044.635" y="1497.494" fill="#7894A2" width="71.939" height="293.3"/>
	<rect x="1054.66" y="1488.122" fill="#7894A2" width="51.887" height="46.617"/>
	<rect x="1062.457" y="1473.544" fill="#7894A2" width="36.295" height="37.888"/>
	<rect x="941.361" y="1418.156" fill="#7894A2" width="36.299" height="37.886"/>
	<rect x="899.837" y="1454.8" fill="#7894A2" width="42.225" height="335.994"/>
	<rect x="920.947" y="1426.687" fill="#7894A2" width="64.196" height="364.107"/>
	<rect x="961.044" y="1488.122" fill="#7894A2" width="35.231" height="302.672"/>
	<rect x="978.664" y="1592.254" fill="#7894A2" width="35.231" height="198.54"/>
	<rect x="813.867" y="1655.228" fill="#7894A2" width="32.453" height="42.092"/>
	<polygon fill="#7894A2" points="792.978,1790.794 743.042,1790.794 743.042,1603.845 778.345,1627.169 792.978,1627.169 	"/>
</g>
<rect x="-68.555" y="1787.982" fill="#4497A6" width="1217.333" height="86.018"/>
<g>
	<rect x="570.203" y="1624.102" fill="#B5C3CB" width="381.977" height="161.688"/>
	<polygon fill="#44535A" points="959.776,1612.166 562.604,1612.166 592.991,1566.585 929.391,1566.585 	"/>
	<rect x="562.604" y="1612.166" fill="#2B383D" width="397.172" height="11.936"/>
	<rect x="761.188" y="1650.146" fill="#FFFFFF" width="167.118" height="135.644"/>
	<rect x="766.617" y="1654.76" fill="#8D9092" width="156.262" height="131.029"/>
	<rect x="779.638" y="1654.76" fill="#636466" width="130.221" height="131.029"/>
	<rect x="881.509" y="1696.673" fill="#A0BCCA" width="28.35" height="89.116"/>
	<g>
		<rect x="586.813" y="1646.739" fill="#B7C4CB" width="69.454" height="28.569"/>
		<rect x="584.782" y="1644.855" fill="#FFFFFF" width="69.458" height="28.57"/>
		<rect x="589.743" y="1648.141" fill="#03626C" width="59.535" height="22.006"/>
		<g>
			<polygon fill="#FFFFFF" points="628.227,1648.141 600.922,1670.146 593.992,1670.146 621.297,1648.141 			"/>
			<polygon fill="#FFFFFF" points="643.435,1648.141 616.155,1670.146 609.229,1670.146 636.504,1648.141 			"/>
		</g>
	</g>
	<g>
		<rect x="586.813" y="1706.828" fill="#B7C4CB" width="69.454" height="48.115"/>
		<rect x="584.782" y="1704.946" fill="#FFFFFF" width="69.458" height="48.118"/>
		<rect x="589.743" y="1708.231" fill="#03626C" width="59.535" height="41.553"/>
		<g>
			<polygon fill="#FFFFFF" points="628.227,1708.231 600.922,1749.784 593.992,1749.784 621.297,1708.231 			"/>
			<polygon fill="#FFFFFF" points="643.435,1708.231 616.155,1749.784 609.229,1749.784 636.504,1708.231 			"/>
		</g>
	</g>
	<g>
		<rect x="674.917" y="1706.828" fill="#B7C4CB" width="69.458" height="48.115"/>
		<rect x="672.887" y="1704.946" fill="#FFFFFF" width="69.455" height="48.118"/>
		<rect x="677.852" y="1708.231" fill="#03626C" width="59.532" height="41.553"/>
		<g>
			<polygon fill="#FFFFFF" points="716.331,1708.231 689.024,1749.784 682.1,1749.784 709.403,1708.231 			"/>
			<polygon fill="#FFFFFF" points="731.538,1708.231 704.26,1749.784 697.336,1749.784 724.606,1708.231 			"/>
		</g>
	</g>
	<g>
		<rect x="674.917" y="1646.739" fill="#B7C4CB" width="69.458" height="28.569"/>
		<rect x="672.887" y="1644.855" fill="#FFFFFF" width="69.455" height="28.57"/>
		<rect x="677.852" y="1648.141" fill="#03626C" width="59.532" height="22.006"/>
		<g>
			<polygon fill="#FFFFFF" points="716.331,1648.141 689.024,1670.146 682.1,1670.146 709.403,1648.141 			"/>
			<polygon fill="#FFFFFF" points="731.538,1648.141 704.26,1670.146 697.336,1670.146 724.606,1648.141 			"/>
		</g>
	</g>
	<polygon fill="#A0BCCA" points="850.65,1752.993 850.65,1730.887 808.733,1730.887 808.733,1752.993 787.779,1752.993 
		787.779,1785.789 871.606,1785.789 871.606,1752.993 	"/>
	<rect x="766.617" y="1654.76" fill="#BCBEC0" width="156.262" height="35.537"/>
	<path fill="#E0E1E2" d="M919.08,1661.018c0,1.038-0.841,1.88-1.874,1.88H773.104c-1.036,0-1.876-0.842-1.876-1.88l0,0
		c0-1.036,0.84-1.875,1.876-1.875h144.103C918.239,1659.143,919.08,1659.981,919.08,1661.018L919.08,1661.018z"/>
	<path fill="#E0E1E2" d="M919.08,1668.27c0,1.036-0.841,1.877-1.874,1.877H773.104c-1.036,0-1.876-0.841-1.876-1.877l0,0
		c0-1.037,0.84-1.88,1.876-1.88h144.103C918.239,1666.39,919.08,1667.232,919.08,1668.27L919.08,1668.27z"/>
	<path fill="#E0E1E2" d="M919.08,1675.516c0,1.038-0.841,1.878-1.874,1.878H773.104c-1.036,0-1.876-0.84-1.876-1.878l0,0
		c0-1.035,0.84-1.876,1.876-1.876h144.103C918.239,1673.64,919.08,1674.48,919.08,1675.516L919.08,1675.516z"/>
	<path fill="#E0E1E2" d="M919.08,1682.764c0,1.04-0.841,1.879-1.874,1.879H773.104c-1.036,0-1.876-0.839-1.876-1.879l0,0
		c0-1.034,0.84-1.875,1.876-1.875h144.103C918.239,1680.889,919.08,1681.729,919.08,1682.764L919.08,1682.764z"/>
	<rect x="593.992" y="1513.415" fill="#2B383D" width="335.398" height="53.17"/>
	<rect x="590.197" y="1499.853" fill="#1D292D" width="342.99" height="13.563"/>
	<g>
		<rect x="616.311" y="1526.659" fill="#B7C4CB" width="69.453" height="28.571"/>
		<rect x="614.279" y="1524.777" fill="#FFFFFF" width="69.458" height="28.572"/>
		<rect x="619.243" y="1528.06" fill="#03626C" width="59.533" height="22.005"/>
		<g>
			<polygon fill="#FFFFFF" points="657.724,1528.06 630.419,1550.064 623.49,1550.064 650.797,1528.06 			"/>
			<polygon fill="#FFFFFF" points="672.93,1528.06 645.652,1550.064 638.729,1550.064 666.002,1528.06 			"/>
		</g>
	</g>
	<g>
		<rect x="728.727" y="1526.659" fill="#B7C4CB" width="69.457" height="28.571"/>
		<rect x="726.699" y="1524.777" fill="#FFFFFF" width="69.454" height="28.572"/>
		<rect x="731.66" y="1528.06" fill="#03626C" width="59.53" height="22.005"/>
		<g>
			<polygon fill="#FFFFFF" points="770.14,1528.06 742.837,1550.064 735.91,1550.064 763.213,1528.06 			"/>
			<polygon fill="#FFFFFF" points="785.351,1528.06 758.072,1550.064 751.144,1550.064 778.419,1528.06 			"/>
		</g>
	</g>
	<g>
		<rect x="841.146" y="1526.659" fill="#B7C4CB" width="69.453" height="28.571"/>
		<rect x="839.115" y="1524.777" fill="#FFFFFF" width="69.458" height="28.572"/>
		<rect x="844.078" y="1528.06" fill="#03626C" width="59.532" height="22.005"/>
		<g>
			<polygon fill="#FFFFFF" points="882.559,1528.06 855.256,1550.064 848.328,1550.064 875.633,1528.06 			"/>
			<polygon fill="#FFFFFF" points="897.766,1528.06 870.49,1550.064 863.563,1550.064 890.839,1528.06 			"/>
		</g>
	</g>
</g>
<g>
	<g>
		<g>
			<rect x="937.999" y="1667.429" fill="#D57D43" width="13.469" height="26.945"/>
			<rect x="943.039" y="1667.429" fill="#E7D5C6" width="4.239" height="8.082"/>
			<rect x="951.468" y="1667.429" fill="#F9A45A" width="24.853" height="26.945"/>
			<polygon opacity="0.5" fill="#FDD6BF" points="975.346,1693.318 975.346,1668.484 952.445,1668.484 			"/>
			<rect x="942.688" y="1667.429" fill="#E6E7E8" width="4.092" height="7.785"/>
			<rect x="953.259" y="1685.977" fill="#703E17" width="9.167" height="1.277"/>
			<rect x="953.259" y="1688.408" fill="#703E17" width="6.208" height="1.276"/>
			
				<rect x="953.566" y="1690.45" fill="none" stroke="#703E17" stroke-width="0.2619" stroke-linecap="round" stroke-linejoin="round" stroke-miterlimit="10" width="2.192" height="1.978"/>
			
				<rect x="956.939" y="1690.45" fill="none" stroke="#703E17" stroke-width="0.2619" stroke-linecap="round" stroke-linejoin="round" stroke-miterlimit="10" width="2.196" height="1.978"/>
		</g>
		<g>
			<rect x="976.32" y="1721.32" fill="#D57D43" width="13.47" height="26.943"/>
			<rect x="981.359" y="1721.32" fill="#E7D5C6" width="4.242" height="8.083"/>
			<rect x="989.79" y="1721.32" fill="#F9A45A" width="24.851" height="26.943"/>
			<polygon opacity="0.5" fill="#FDD6BF" points="1013.667,1747.209 1013.667,1722.376 990.765,1722.376 			"/>
			<rect x="981.009" y="1721.32" fill="#E6E7E8" width="4.092" height="7.784"/>
			<rect x="991.581" y="1739.87" fill="#703E17" width="9.169" height="1.276"/>
			<rect x="991.581" y="1742.299" fill="#703E17" width="6.208" height="1.275"/>
			
				<rect x="991.888" y="1744.343" fill="none" stroke="#703E17" stroke-width="0.2619" stroke-linecap="round" stroke-linejoin="round" stroke-miterlimit="10" width="2.193" height="1.978"/>
			
				<rect x="995.26" y="1744.343" fill="none" stroke="#703E17" stroke-width="0.2619" stroke-linecap="round" stroke-linejoin="round" stroke-miterlimit="10" width="2.197" height="1.978"/>
		</g>
		<g>
			<rect x="937.999" y="1721.32" fill="#D57D43" width="13.469" height="26.943"/>
			<rect x="943.039" y="1721.32" fill="#E7D5C6" width="4.239" height="8.083"/>
			<rect x="951.468" y="1721.32" fill="#F9A45A" width="24.853" height="26.943"/>
			<polygon opacity="0.5" fill="#FDD6BF" points="975.346,1747.209 975.346,1722.376 952.445,1722.376 			"/>
			<rect x="942.688" y="1721.32" fill="#E6E7E8" width="4.092" height="7.784"/>
			<rect x="953.259" y="1739.87" fill="#703E17" width="9.167" height="1.276"/>
			<rect x="953.259" y="1742.299" fill="#703E17" width="6.208" height="1.275"/>
			
				<rect x="953.566" y="1744.343" fill="none" stroke="#703E17" stroke-width="0.2619" stroke-linecap="round" stroke-linejoin="round" stroke-miterlimit="10" width="2.192" height="1.978"/>
			
				<rect x="956.939" y="1744.343" fill="none" stroke="#703E17" stroke-width="0.2619" stroke-linecap="round" stroke-linejoin="round" stroke-miterlimit="10" width="2.196" height="1.978"/>
		</g>
		<g>
			<rect x="976.32" y="1694.374" fill="#CB713B" width="13.47" height="26.946"/>
			<rect x="981.359" y="1694.374" fill="#E7D5C6" width="4.242" height="8.082"/>
			<rect x="989.79" y="1694.374" fill="#E7944E" width="24.851" height="26.946"/>
			<polygon opacity="0.5" fill="#FDD6BF" points="1013.667,1720.261 1013.667,1695.432 990.765,1695.432 			"/>
			<rect x="981.009" y="1694.374" fill="#E6E7E8" width="4.092" height="7.783"/>
			<rect x="991.581" y="1712.924" fill="#703E17" width="9.169" height="1.277"/>
			<rect x="991.581" y="1715.354" fill="#703E17" width="6.208" height="1.273"/>
			
				<rect x="991.888" y="1717.395" fill="none" stroke="#703E17" stroke-width="0.2619" stroke-linecap="round" stroke-linejoin="round" stroke-miterlimit="10" width="2.193" height="1.979"/>
			
				<rect x="995.26" y="1717.395" fill="none" stroke="#703E17" stroke-width="0.2619" stroke-linecap="round" stroke-linejoin="round" stroke-miterlimit="10" width="2.197" height="1.979"/>
		</g>
		<g>
			<rect x="937.999" y="1694.374" fill="#CB713B" width="13.469" height="26.946"/>
			<rect x="943.039" y="1694.374" fill="#E7D5C6" width="4.239" height="8.082"/>
			<rect x="951.468" y="1694.374" fill="#E7944E" width="24.853" height="26.946"/>
			<polygon opacity="0.5" fill="#FDD6BF" points="975.346,1720.261 975.346,1695.432 952.445,1695.432 			"/>
			<rect x="942.688" y="1694.374" fill="#E6E7E8" width="4.092" height="7.783"/>
			<rect x="953.259" y="1712.924" fill="#703E17" width="9.167" height="1.277"/>
			<rect x="953.259" y="1715.354" fill="#703E17" width="6.208" height="1.273"/>
			
				<rect x="953.566" y="1717.395" fill="none" stroke="#703E17" stroke-width="0.2619" stroke-linecap="round" stroke-linejoin="round" stroke-miterlimit="10" width="2.192" height="1.979"/>
			
				<rect x="956.939" y="1717.395" fill="none" stroke="#703E17" stroke-width="0.2619" stroke-linecap="round" stroke-linejoin="round" stroke-miterlimit="10" width="2.196" height="1.979"/>
		</g>
		<g>
			<rect x="976.32" y="1748.264" fill="#CB713B" width="13.47" height="26.947"/>
			<rect x="981.359" y="1748.264" fill="#E7D5C6" width="4.242" height="8.085"/>
			<rect x="989.79" y="1748.264" fill="#E7944E" width="24.851" height="26.947"/>
			<polygon opacity="0.5" fill="#FDD6BF" points="1013.667,1774.154 1013.667,1749.322 990.765,1749.322 			"/>
			<rect x="981.009" y="1748.264" fill="#E6E7E8" width="4.092" height="7.785"/>
			<rect x="991.581" y="1766.813" fill="#703E17" width="9.169" height="1.278"/>
			<rect x="991.581" y="1769.245" fill="#703E17" width="6.208" height="1.274"/>
			
				<rect x="991.888" y="1771.29" fill="none" stroke="#703E17" stroke-width="0.2619" stroke-linecap="round" stroke-linejoin="round" stroke-miterlimit="10" width="2.193" height="1.974"/>
			
				<rect x="995.26" y="1771.29" fill="none" stroke="#703E17" stroke-width="0.2619" stroke-linecap="round" stroke-linejoin="round" stroke-miterlimit="10" width="2.197" height="1.974"/>
		</g>
		<g>
			<rect x="937.999" y="1748.264" fill="#CB713B" width="13.469" height="26.947"/>
			<rect x="943.039" y="1748.264" fill="#E7D5C6" width="4.239" height="8.085"/>
			<rect x="951.468" y="1748.264" fill="#E7944E" width="24.853" height="26.947"/>
			<polygon opacity="0.5" fill="#FDD6BF" points="975.346,1774.154 975.346,1749.322 952.445,1749.322 			"/>
			<rect x="942.688" y="1748.264" fill="#E6E7E8" width="4.092" height="7.785"/>
			<rect x="953.259" y="1766.813" fill="#703E17" width="9.167" height="1.278"/>
			<rect x="953.259" y="1769.245" fill="#703E17" width="6.208" height="1.274"/>
			
				<rect x="953.566" y="1771.29" fill="none" stroke="#703E17" stroke-width="0.2619" stroke-linecap="round" stroke-linejoin="round" stroke-miterlimit="10" width="2.192" height="1.974"/>
			
				<rect x="956.939" y="1771.29" fill="none" stroke="#703E17" stroke-width="0.2619" stroke-linecap="round" stroke-linejoin="round" stroke-miterlimit="10" width="2.196" height="1.974"/>
		</g>
	</g>
	<g>
		<g>
			<rect x="1016.63" y="1721.32" fill="#D57D43" width="13.472" height="26.943"/>
			<rect x="1021.669" y="1721.32" fill="#E7D5C6" width="4.242" height="8.083"/>
			<rect x="1030.102" y="1721.32" fill="#F9A45A" width="24.852" height="26.943"/>
			<polygon opacity="0.5" fill="#FDD6BF" points="1053.978,1747.209 1053.978,1722.376 1031.077,1722.376 			"/>
			<rect x="1021.318" y="1721.32" fill="#E6E7E8" width="4.095" height="7.784"/>
			<rect x="1031.895" y="1739.87" fill="#703E17" width="9.167" height="1.276"/>
			<rect x="1031.895" y="1742.299" fill="#703E17" width="6.207" height="1.275"/>
			
				<rect x="1032.197" y="1744.343" fill="none" stroke="#703E17" stroke-width="0.2619" stroke-linecap="round" stroke-linejoin="round" stroke-miterlimit="10" width="2.197" height="1.978"/>
			
				<rect x="1035.573" y="1744.343" fill="none" stroke="#703E17" stroke-width="0.2619" stroke-linecap="round" stroke-linejoin="round" stroke-miterlimit="10" width="2.195" height="1.978"/>
		</g>
		<g>
			<rect x="1016.63" y="1748.264" fill="#CB713B" width="13.472" height="26.947"/>
			<rect x="1021.669" y="1748.264" fill="#E7D5C6" width="4.242" height="8.085"/>
			<rect x="1030.102" y="1748.264" fill="#E7944E" width="24.852" height="26.947"/>
			<polygon opacity="0.5" fill="#FDD6BF" points="1053.978,1774.154 1053.978,1749.322 1031.077,1749.322 			"/>
			<rect x="1021.318" y="1748.264" fill="#E6E7E8" width="4.095" height="7.785"/>
			<rect x="1031.895" y="1766.813" fill="#703E17" width="9.167" height="1.278"/>
			<rect x="1031.895" y="1769.245" fill="#703E17" width="6.207" height="1.274"/>
			
				<rect x="1032.197" y="1771.29" fill="none" stroke="#703E17" stroke-width="0.2619" stroke-linecap="round" stroke-linejoin="round" stroke-miterlimit="10" width="2.197" height="1.974"/>
			
				<rect x="1035.573" y="1771.29" fill="none" stroke="#703E17" stroke-width="0.2619" stroke-linecap="round" stroke-linejoin="round" stroke-miterlimit="10" width="2.195" height="1.974"/>
		</g>
	</g>
	<g>
		<rect x="936.118" y="1775.211" fill="#A7A9AC" width="128.902" height="11.388"/>
		<rect x="936.118" y="1757.226" fill="#E08745" width="128.902" height="11.389"/>
		<rect x="936.118" y="1739.875" fill="#E08745" width="128.902" height="11.39"/>
		<rect x="936.118" y="1722.523" fill="#E08745" width="128.902" height="11.388"/>
		<rect x="936.118" y="1705.172" fill="#E08745" width="128.902" height="11.388"/>
		<rect x="931.283" y="1699.947" fill="#A7A9AC" width="4.835" height="86.651"/>
		<rect x="1050.121" y="1699.947" fill="#A7A9AC" width="4.832" height="86.651"/>
		<rect x="1042.817" y="1786.736" fill="#3A3640" width="24.291" height="5.748"/>
		<rect x="925.399" y="1728.132" fill="#050009" width="5.884" height="59.548"/>
		<rect x="920.89" y="1786.736" fill="#3A3640" width="139.297" height="9.583"/>
		<path fill="#E2E3E4" d="M929.301,1709.247v14.807c0,0.831-2.279,1.684-2.279,2.561v63.007c0,3.546-1.435,4.857-4.474,4.857
			c-3.028,0-77.065,0.476-77.065,0.476s0-40.13,0-40.907s0.168-3.341,2.443-3.607c2.273-0.271,12.98-1.988,12.98-1.988
			s2.915-28.102,3.544-35.504c0-0.068,0.008-0.137,0.008-0.192c0.505-5.958,2.475-6.354,9.308-6.354h50.693
			C927.433,1706.4,929.301,1705.83,929.301,1709.247z"/>
		<path fill="#2D2932" d="M882.309,1786.603v9.776h40.242c3.036,0,8.732-3.22,8.732-6.762v-3.015H882.309z"/>
		<path fill="#2D2932" d="M901.628,1794.543c0,1.015-1.128,1.836-2.521,1.836H846.01c-1.388,0-1.684-0.821-1.684-1.836v-6.078
			c0-1.014,0.296-1.836,1.684-1.836h53.097c1.394,0,2.521,0.822,2.521,1.836V1794.543z"/>
		<path fill="#241F29" d="M884.523,1796.273c0-9.496,7.697-17.193,17.192-17.193s17.195,7.697,17.195,17.193H884.523z"/>
		<g>
			<circle fill="#0B0410" cx="901.936" cy="1796.273" r="14.505"/>
			<circle fill="#D1D3D4" cx="901.937" cy="1796.273" r="8.98"/>
			<circle fill="#A1A3A6" cx="901.937" cy="1796.273" r="1.795"/>
			<path fill="#D1D3D4" d="M907.951,1789.617c1.078,1.484,1.722,3.303,1.722,5.275c0,4.96-4.021,8.979-8.978,8.979
				c-2.32,0-4.422-0.887-6.017-2.326c1.634,2.247,4.272,3.706,7.258,3.706c4.958,0,8.98-4.018,8.98-8.979
				C910.917,1793.631,909.768,1791.263,907.951,1789.617z"/>
		</g>
		<path fill="#241F29" d="M1006.205,1796.273c0-9.496,7.701-17.193,17.195-17.193c9.495,0,17.194,7.697,17.194,17.193H1006.205z"/>
		<path fill="#7D7E81" d="M1023.4,1775.983c-11.336,0-20.521,9.188-20.521,20.521h3.54c0-9.379,7.603-16.98,16.98-16.98
			c9.377,0,16.979,7.602,16.979,16.98h3.541C1043.92,1785.171,1034.731,1775.983,1023.4,1775.983z"/>
		<g>
			<path fill="#0B0410" d="M1038.126,1796.273c0,8.011-6.491,14.503-14.506,14.503c-8.01,0-14.505-6.492-14.505-14.503
				s6.495-14.502,14.505-14.502C1031.635,1781.771,1038.126,1788.263,1038.126,1796.273z"/>
			<circle fill="#D1D3D4" cx="1023.619" cy="1796.273" r="8.98"/>
			<circle fill="#A1A3A6" cx="1023.619" cy="1796.273" r="1.797"/>
			<path fill="#D1D3D4" d="M1029.634,1789.617c1.081,1.484,1.725,3.303,1.725,5.275c0,4.96-4.02,8.979-8.981,8.979
				c-2.315,0-4.422-0.887-6.013-2.326c1.631,2.247,4.271,3.706,7.256,3.706c4.96,0,8.979-4.018,8.979-8.979
				C1032.6,1793.631,1031.451,1791.263,1029.634,1789.617z"/>
		</g>
		<path fill="#323A4D" d="M864.177,1715.983c-0.837,9.012-3.271,32.468-3.271,32.468h4.318l2.603-32.468H864.177z"/>
		<rect x="871.676" y="1715.983" fill="#323A4D" width="27.527" height="32.468"/>
		<path fill="none" stroke="#BCBEC0" stroke-width="0.4981" stroke-miterlimit="10" d="M869.543,1714.133v70c0,0,13.332,0,14.9,0
			c3.703-10.25,15.8-12.864,15.8-12.864v-57.136H869.543z"/>
		<rect x="845.482" y="1757.904" fill="#BCBEC0" width="4.938" height="17.307"/>
		<rect x="845.482" y="1760.357" fill="#BCBEC0" width="3.697" height="12.401"/>
		<rect x="845.482" y="1762.922" fill="#BCBEC0" width="3.697" height="7.273"/>
		<rect x="845.482" y="1765.483" fill="#BCBEC0" width="3.697" height="2.147"/>
		<polygon fill="#F99D2B" points="849.18,1784.133 845.482,1784.133 845.482,1776.92 847.953,1776.92 		"/>
		<path fill="#FEBE27" d="M848.434,1782.237c0,0.605-0.492,1.101-1.1,1.101c-0.609,0-1.105-0.495-1.105-1.101
			c0-0.609,0.496-1.104,1.105-1.104C847.941,1781.133,848.434,1781.628,848.434,1782.237z"/>
		<path fill="#A7A9AC" d="M924.592,1766.561c0,0.589-0.479,1.07-1.076,1.07h-8.809c-0.597,0-1.08-0.481-1.08-1.07l0,0
			c0-0.598,0.483-1.077,1.08-1.077h8.809C924.112,1765.483,924.592,1765.963,924.592,1766.561L924.592,1766.561z"/>
		<path fill="#A7A9AC" d="M923.167,1770.195c0,0.594-0.482,1.073-1.075,1.073h-8.812c-0.593,0-1.076-0.479-1.076-1.073l0,0
			c0-0.595,0.483-1.074,1.076-1.074h8.812C922.685,1769.121,923.167,1769.601,923.167,1770.195L923.167,1770.195z"/>
		<path fill="#A7A9AC" d="M920.89,1773.833c0,0.591-0.481,1.075-1.077,1.075h-8.809c-0.596,0-1.076-0.484-1.076-1.075l0,0
			c0-0.595,0.48-1.074,1.076-1.074h8.809C920.408,1772.759,920.89,1773.238,920.89,1773.833L920.89,1773.833z"/>
		
			<rect x="904.898" y="1718.453" fill="none" stroke="#BCBEC0" stroke-width="0.4981" stroke-miterlimit="10" width="14.995" height="33.789"/>
		<circle fill="#67686B" cx="1052.764" cy="1763.153" r="1.186"/>
		<path fill="#67686B" d="M1051.578,1728.215c0,0.657,0.53,1.188,1.185,1.188c0.656,0,1.187-0.531,1.187-1.188
			c0-0.65-0.53-1.183-1.187-1.183C1052.108,1727.032,1051.578,1727.564,1051.578,1728.215z"/>
		<circle fill="#67686B" cx="1052.764" cy="1710.866" r="1.186"/>
		<path fill="#67686B" d="M1051.578,1745.57c0,0.651,0.53,1.183,1.185,1.183c0.656,0,1.187-0.531,1.187-1.183
			c0-0.656-0.53-1.188-1.187-1.188C1052.108,1744.383,1051.578,1744.914,1051.578,1745.57z"/>
		<path fill="#67686B" d="M932.515,1763.153c0,0.653,0.53,1.185,1.185,1.185c0.655,0,1.189-0.531,1.189-1.185
			c0-0.656-0.534-1.188-1.189-1.188C933.045,1761.965,932.515,1762.497,932.515,1763.153z"/>
		<path fill="#67686B" d="M932.515,1728.215c0,0.657,0.53,1.188,1.185,1.188c0.655,0,1.189-0.531,1.189-1.188
			c0-0.65-0.534-1.183-1.189-1.183C933.045,1727.032,932.515,1727.564,932.515,1728.215z"/>
		<circle fill="#67686B" cx="933.702" cy="1710.866" r="1.187"/>
		<path fill="#67686B" d="M932.515,1745.57c0,0.651,0.53,1.183,1.185,1.183c0.655,0,1.189-0.531,1.189-1.183
			c0-0.656-0.534-1.188-1.189-1.188C933.045,1744.383,932.515,1744.914,932.515,1745.57z"/>
	</g>
</g>
<g>
	<g>
		<rect x="290.793" y="1618.275" fill="#A3A5A8" width="250.666" height="173.285"/>
		<rect x="112.085" y="1650.514" fill="#B8BABC" width="206.177" height="155.386"/>
		<rect x="141.005" y="1683.982" fill="#8A8C8E" width="145.525" height="121.917"/>
		<rect x="148.177" y="1683.982" fill="#5A5B5D" width="131.183" height="121.917"/>
		<rect x="277.929" y="1607.915" fill="#656668" width="268.38" height="10.36"/>
		<rect x="349.574" y="1675.265" fill="#8A8C8E" width="157.532" height="116.296"/>
		<rect x="357.334" y="1675.265" fill="#5A5B5D" width="142.009" height="116.296"/>
		<polygon fill="#9FA1A4" points="321.581,1650.514 109.277,1650.514 215.428,1568.166 		"/>
		<rect x="83.053" y="1755.744" fill="#8D9092" width="115.905" height="50.155"/>
		<rect x="162.219" y="1755.744" fill="#757679" width="36.739" height="50.155"/>
		<rect x="79.333" y="1746.933" fill="#9D9FA2" width="123.346" height="8.812"/>
		<rect x="163.58" y="1746.933" fill="#808285" width="39.099" height="8.812"/>
		<path fill="#77787B" d="M112.085,1650.514c6.951-5.377,103.089-79.685,103.089-79.685s100.158,77.131,103.088,79.685
			c6.252,5.444,15.066-1.366,9.937-5.437c-5.13-4.071-113.024-89.656-113.024-89.656s-106.141,84.522-112.485,89.609
			C96.345,1650.113,104.749,1657.854,112.085,1650.514z"/>
		<rect x="145.024" y="1683.982" fill="#CBCCCE" width="137.489" height="39.115"/>
		<rect x="145.024" y="1719.678" fill="#CBCCCE" width="137.489" height="3.42"/>
		<path fill="#CBCCCE" d="M277.929,1710.793c0,0.962-0.777,1.739-1.737,1.739h-126.28c-0.958,0-1.737-0.777-1.737-1.739l0,0
			c0-0.956,0.779-1.735,1.737-1.735h126.28C277.151,1709.058,277.929,1709.837,277.929,1710.793L277.929,1710.793z"/>
		<path fill="#CBCCCE" d="M277.929,1702.057c0,0.959-0.777,1.734-1.737,1.734h-126.28c-0.958,0-1.737-0.775-1.737-1.734l0,0
			c0-0.959,0.779-1.74,1.737-1.74h126.28C277.151,1700.316,277.929,1701.098,277.929,1702.057L277.929,1702.057z"/>
		<path fill="#CBCCCE" d="M277.929,1693.313c0,0.962-0.777,1.738-1.737,1.738h-126.28c-0.958,0-1.737-0.776-1.737-1.738l0,0
			c0-0.956,0.779-1.736,1.737-1.736h126.28C277.151,1691.577,277.929,1692.357,277.929,1693.313L277.929,1693.313z"/>
		<rect x="340.924" y="1628.68" fill="#5A5B5D" width="54.046" height="23.746"/>
		<rect x="346.35" y="1632.968" fill="#27AAE1" width="43.195" height="15.171"/>
		<polygon fill="#218BB8" points="389.545,1648.139 346.35,1648.139 346.35,1632.968 		"/>
		<rect x="408.333" y="1628.68" fill="#5A5B5D" width="54.048" height="23.746"/>
		<rect x="413.761" y="1632.968" fill="#27AAE1" width="43.194" height="15.171"/>
		<polygon fill="#218BB8" points="456.955,1648.139 413.761,1648.139 413.761,1632.968 		"/>
		<rect x="475.743" y="1628.68" fill="#5A5B5D" width="54.045" height="23.746"/>
		<rect x="481.169" y="1632.968" fill="#27AAE1" width="43.196" height="15.171"/>
		<polygon fill="#218BB8" points="524.365,1648.139 481.169,1648.139 481.169,1632.968 		"/>
	</g>
	<g>
		<g>
			<rect x="545.169" y="1664.915" fill="#D57D43" width="15.383" height="30.767"/>
			<rect x="549.957" y="1664.915" fill="#E7D5C6" width="4.844" height="9.228"/>
			<rect x="516.795" y="1664.915" fill="#F9A45A" width="28.374" height="30.767"/>
			<polygon opacity="0.5" fill="#FDD6BF" points="517.91,1694.476 517.91,1666.119 544.057,1666.119 			"/>
			<rect x="550.526" y="1664.915" fill="#E6E7E8" width="4.674" height="8.888"/>
			<rect x="532.656" y="1686.097" fill="#703E17" width="10.473" height="1.457"/>
			<rect x="536.039" y="1688.868" fill="#703E17" width="7.09" height="1.457"/>
			
				<rect x="540.271" y="1691.202" fill="none" stroke="#703E17" stroke-width="0.299" stroke-linecap="round" stroke-linejoin="round" stroke-miterlimit="10" width="2.509" height="2.256"/>
			
				<rect x="536.419" y="1691.202" fill="none" stroke="#703E17" stroke-width="0.299" stroke-linecap="round" stroke-linejoin="round" stroke-miterlimit="10" width="2.507" height="2.256"/>
		</g>
		<g>
			<rect x="588.927" y="1664.915" fill="#D57D43" width="15.387" height="30.767"/>
			<rect x="593.716" y="1664.915" fill="#E7D5C6" width="4.841" height="9.228"/>
			<rect x="560.552" y="1664.915" fill="#F9A45A" width="28.375" height="30.767"/>
			<polygon opacity="0.5" fill="#FDD6BF" points="561.667,1694.476 561.667,1666.119 587.813,1666.119 			"/>
			<rect x="594.283" y="1664.915" fill="#E6E7E8" width="4.674" height="8.888"/>
			<rect x="576.413" y="1686.097" fill="#703E17" width="10.471" height="1.457"/>
			<rect x="579.799" y="1688.868" fill="#703E17" width="7.085" height="1.457"/>
			
				<rect x="584.027" y="1691.202" fill="none" stroke="#703E17" stroke-width="0.299" stroke-linecap="round" stroke-linejoin="round" stroke-miterlimit="10" width="2.508" height="2.256"/>
			
				<rect x="580.179" y="1691.202" fill="none" stroke="#703E17" stroke-width="0.299" stroke-linecap="round" stroke-linejoin="round" stroke-miterlimit="10" width="2.505" height="2.256"/>
		</g>
		<g>
			<rect x="545.169" y="1726.447" fill="#D57D43" width="15.383" height="30.768"/>
			<rect x="549.957" y="1726.447" fill="#E7D5C6" width="4.844" height="9.23"/>
			<rect x="516.795" y="1726.447" fill="#F9A45A" width="28.374" height="30.768"/>
			<polygon opacity="0.5" fill="#FDD6BF" points="517.91,1756.008 517.91,1727.653 544.057,1727.653 			"/>
			<rect x="550.526" y="1726.447" fill="#E6E7E8" width="4.674" height="8.89"/>
			<rect x="532.656" y="1747.629" fill="#703E17" width="10.473" height="1.457"/>
			<rect x="536.039" y="1750.402" fill="#703E17" width="7.09" height="1.456"/>
			
				<rect x="540.271" y="1752.734" fill="none" stroke="#703E17" stroke-width="0.299" stroke-linecap="round" stroke-linejoin="round" stroke-miterlimit="10" width="2.509" height="2.26"/>
			
				<rect x="536.419" y="1752.734" fill="none" stroke="#703E17" stroke-width="0.299" stroke-linecap="round" stroke-linejoin="round" stroke-miterlimit="10" width="2.507" height="2.26"/>
		</g>
		<g>
			<rect x="588.927" y="1726.447" fill="#D57D43" width="15.387" height="30.768"/>
			<rect x="593.716" y="1726.447" fill="#E7D5C6" width="4.841" height="9.23"/>
			<rect x="560.552" y="1726.447" fill="#F9A45A" width="28.375" height="30.768"/>
			<polygon opacity="0.5" fill="#FDD6BF" points="561.667,1756.008 561.667,1727.653 587.813,1727.653 			"/>
			<rect x="594.283" y="1726.447" fill="#E6E7E8" width="4.674" height="8.89"/>
			<rect x="576.413" y="1747.629" fill="#703E17" width="10.471" height="1.457"/>
			<rect x="579.799" y="1750.402" fill="#703E17" width="7.085" height="1.456"/>
			
				<rect x="584.027" y="1752.734" fill="none" stroke="#703E17" stroke-width="0.299" stroke-linecap="round" stroke-linejoin="round" stroke-miterlimit="10" width="2.508" height="2.26"/>
			
				<rect x="580.179" y="1752.734" fill="none" stroke="#703E17" stroke-width="0.299" stroke-linecap="round" stroke-linejoin="round" stroke-miterlimit="10" width="2.505" height="2.26"/>
		</g>
		<g>
			<rect x="545.169" y="1695.682" fill="#CB713B" width="15.383" height="30.766"/>
			<rect x="549.957" y="1695.682" fill="#E7D5C6" width="4.844" height="9.23"/>
			<rect x="516.795" y="1695.682" fill="#E7944E" width="28.374" height="30.766"/>
			<polygon opacity="0.5" fill="#FDD6BF" points="517.91,1725.24 517.91,1696.889 544.057,1696.889 			"/>
			<rect x="550.526" y="1695.682" fill="#E6E7E8" width="4.674" height="8.888"/>
			<rect x="532.656" y="1716.861" fill="#703E17" width="10.473" height="1.46"/>
			<rect x="536.039" y="1719.633" fill="#703E17" width="7.09" height="1.461"/>
			
				<rect x="540.271" y="1721.969" fill="none" stroke="#703E17" stroke-width="0.299" stroke-linecap="round" stroke-linejoin="round" stroke-miterlimit="10" width="2.509" height="2.259"/>
			
				<rect x="536.419" y="1721.969" fill="none" stroke="#703E17" stroke-width="0.299" stroke-linecap="round" stroke-linejoin="round" stroke-miterlimit="10" width="2.507" height="2.259"/>
		</g>
		<g>
			<rect x="588.927" y="1695.682" fill="#CB713B" width="15.387" height="30.766"/>
			<rect x="593.716" y="1695.682" fill="#E7D5C6" width="4.841" height="9.23"/>
			<rect x="560.552" y="1695.682" fill="#E7944E" width="28.375" height="30.766"/>
			<polygon opacity="0.5" fill="#FDD6BF" points="561.667,1725.24 561.667,1696.889 587.813,1696.889 			"/>
			<rect x="594.283" y="1695.682" fill="#E6E7E8" width="4.674" height="8.888"/>
			<rect x="576.413" y="1716.861" fill="#703E17" width="10.471" height="1.46"/>
			<rect x="579.799" y="1719.633" fill="#703E17" width="7.085" height="1.461"/>
			
				<rect x="584.027" y="1721.969" fill="none" stroke="#703E17" stroke-width="0.299" stroke-linecap="round" stroke-linejoin="round" stroke-miterlimit="10" width="2.508" height="2.259"/>
			
				<rect x="580.179" y="1721.969" fill="none" stroke="#703E17" stroke-width="0.299" stroke-linecap="round" stroke-linejoin="round" stroke-miterlimit="10" width="2.505" height="2.259"/>
		</g>
		<g>
			<rect x="545.169" y="1757.215" fill="#CB713B" width="15.383" height="30.768"/>
			<rect x="549.957" y="1757.215" fill="#E7D5C6" width="4.844" height="9.229"/>
			<rect x="516.795" y="1757.215" fill="#E7944E" width="28.374" height="30.768"/>
			<polygon opacity="0.5" fill="#FDD6BF" points="517.91,1786.775 517.91,1758.421 544.057,1758.421 			"/>
			<rect x="550.526" y="1757.215" fill="#E6E7E8" width="4.674" height="8.887"/>
			<rect x="532.656" y="1778.395" fill="#703E17" width="10.473" height="1.458"/>
			<rect x="536.039" y="1781.167" fill="#703E17" width="7.09" height="1.456"/>
			
				<rect x="540.271" y="1783.504" fill="none" stroke="#703E17" stroke-width="0.299" stroke-linecap="round" stroke-linejoin="round" stroke-miterlimit="10" width="2.509" height="2.256"/>
			
				<rect x="536.419" y="1783.504" fill="none" stroke="#703E17" stroke-width="0.299" stroke-linecap="round" stroke-linejoin="round" stroke-miterlimit="10" width="2.507" height="2.256"/>
		</g>
		<g>
			<rect x="588.927" y="1757.215" fill="#CB713B" width="15.387" height="30.768"/>
			<rect x="593.716" y="1757.215" fill="#E7D5C6" width="4.841" height="9.229"/>
			<rect x="560.552" y="1757.215" fill="#E7944E" width="28.375" height="30.768"/>
			<polygon opacity="0.5" fill="#FDD6BF" points="561.667,1786.775 561.667,1758.421 587.813,1758.421 			"/>
			<rect x="594.283" y="1757.215" fill="#E6E7E8" width="4.674" height="8.887"/>
			<rect x="576.413" y="1778.395" fill="#703E17" width="10.471" height="1.458"/>
			<rect x="579.799" y="1781.167" fill="#703E17" width="7.085" height="1.456"/>
			
				<rect x="584.027" y="1783.504" fill="none" stroke="#703E17" stroke-width="0.299" stroke-linecap="round" stroke-linejoin="round" stroke-miterlimit="10" width="2.508" height="2.256"/>
			
				<rect x="580.179" y="1783.504" fill="none" stroke="#703E17" stroke-width="0.299" stroke-linecap="round" stroke-linejoin="round" stroke-miterlimit="10" width="2.505" height="2.256"/>
		</g>
		<rect x="513.379" y="1787.982" fill="#43282A" width="94.808" height="4.899"/>
		<rect x="513.379" y="1791.301" fill="#291112" width="94.808" height="1.581"/>
		<rect x="513.379" y="1797.797" fill="#43282A" width="94.808" height="4.11"/>
		<rect x="513.379" y="1800.581" fill="#291112" width="94.808" height="1.326"/>
		<rect x="516.199" y="1792.882" fill="#43282A" width="3.189" height="4.915"/>
		<rect x="516.199" y="1792.882" fill="#1C0203" width="3.189" height="1.64"/>
		<rect x="533.458" y="1792.882" fill="#43282A" width="3.189" height="4.915"/>
		<rect x="533.458" y="1792.882" fill="#1C0203" width="3.189" height="1.64"/>
		<rect x="550.716" y="1792.882" fill="#43282A" width="3.188" height="4.915"/>
		<rect x="550.716" y="1792.882" fill="#1C0203" width="3.188" height="1.64"/>
		<rect x="567.973" y="1792.882" fill="#43282A" width="3.19" height="4.915"/>
		<rect x="567.973" y="1792.882" fill="#1C0203" width="3.19" height="1.64"/>
		<rect x="585.233" y="1792.882" fill="#43282A" width="3.188" height="4.915"/>
		<rect x="585.233" y="1792.882" fill="#1C0203" width="3.188" height="1.64"/>
		<rect x="602.492" y="1792.882" fill="#43282A" width="3.188" height="4.915"/>
		<rect x="602.492" y="1792.882" fill="#1C0203" width="3.188" height="1.64"/>
	</g>
	<g>
		<g>
			<rect x="394.971" y="1686.65" fill="#D57D43" width="13.362" height="26.225"/>
			<rect x="399.126" y="1686.65" fill="#E7D5C6" width="4.207" height="7.865"/>
			<rect x="370.323" y="1686.65" fill="#F9A45A" width="24.647" height="26.225"/>
			<polygon opacity="0.5" fill="#FDD6BF" points="371.288,1711.849 371.288,1687.68 394.004,1687.68 			"/>
			<rect x="399.622" y="1686.65" fill="#E6E7E8" width="4.06" height="7.575"/>
			<rect x="384.099" y="1704.707" fill="#703E17" width="9.095" height="1.241"/>
			<rect x="387.042" y="1707.064" fill="#703E17" width="6.152" height="1.247"/>
			
				<rect x="390.712" y="1709.058" fill="none" stroke="#703E17" stroke-width="0.2573" stroke-linecap="round" stroke-linejoin="round" stroke-miterlimit="10" width="2.18" height="1.924"/>
			
				<rect x="387.368" y="1709.058" fill="none" stroke="#703E17" stroke-width="0.2573" stroke-linecap="round" stroke-linejoin="round" stroke-miterlimit="10" width="2.177" height="1.924"/>
		</g>
		<g>
			<rect x="470.992" y="1765.332" fill="#D57D43" width="13.362" height="26.229"/>
			<rect x="475.149" y="1765.332" fill="#E7D5C6" width="4.207" height="7.866"/>
			<rect x="446.344" y="1765.332" fill="#F9A45A" width="24.648" height="26.229"/>
			<polygon opacity="0.5" fill="#FDD6BF" points="447.309,1790.527 447.309,1766.359 470.026,1766.359 			"/>
			<rect x="475.64" y="1765.332" fill="#E6E7E8" width="4.062" height="7.576"/>
			<rect x="460.122" y="1783.387" fill="#703E17" width="9.092" height="1.242"/>
			<rect x="463.058" y="1785.75" fill="#703E17" width="6.156" height="1.24"/>
			
				<rect x="466.735" y="1787.738" fill="none" stroke="#703E17" stroke-width="0.2573" stroke-linecap="round" stroke-linejoin="round" stroke-miterlimit="10" width="2.177" height="1.928"/>
			
				<rect x="463.388" y="1787.738" fill="none" stroke="#703E17" stroke-width="0.2573" stroke-linecap="round" stroke-linejoin="round" stroke-miterlimit="10" width="2.177" height="1.928"/>
		</g>
		<g>
			<rect x="394.971" y="1739.104" fill="#D57D43" width="13.362" height="26.229"/>
			<rect x="399.126" y="1739.104" fill="#E7D5C6" width="4.207" height="7.869"/>
			<rect x="370.323" y="1739.104" fill="#F9A45A" width="24.647" height="26.229"/>
			<polygon opacity="0.5" fill="#FDD6BF" points="371.288,1764.305 371.288,1740.133 394.004,1740.133 			"/>
			<rect x="399.622" y="1739.104" fill="#E6E7E8" width="4.06" height="7.578"/>
			<rect x="384.099" y="1757.16" fill="#703E17" width="9.095" height="1.242"/>
			<rect x="387.042" y="1759.521" fill="#703E17" width="6.152" height="1.244"/>
			
				<rect x="390.712" y="1761.512" fill="none" stroke="#703E17" stroke-width="0.2573" stroke-linecap="round" stroke-linejoin="round" stroke-miterlimit="10" width="2.18" height="1.925"/>
			
				<rect x="387.368" y="1761.512" fill="none" stroke="#703E17" stroke-width="0.2573" stroke-linecap="round" stroke-linejoin="round" stroke-miterlimit="10" width="2.177" height="1.925"/>
		</g>
		<g>
			<rect x="432.98" y="1739.104" fill="#D57D43" width="13.364" height="26.229"/>
			<rect x="437.137" y="1739.104" fill="#E7D5C6" width="4.207" height="7.869"/>
			<rect x="408.333" y="1739.104" fill="#F9A45A" width="24.647" height="26.229"/>
			<polygon opacity="0.5" fill="#FDD6BF" points="409.3,1764.305 409.3,1740.133 432.013,1740.133 			"/>
			<rect x="437.633" y="1739.104" fill="#E6E7E8" width="4.06" height="7.578"/>
			<rect x="422.112" y="1757.16" fill="#703E17" width="9.092" height="1.242"/>
			<rect x="425.05" y="1759.521" fill="#703E17" width="6.154" height="1.244"/>
			
				<rect x="428.724" y="1761.512" fill="none" stroke="#703E17" stroke-width="0.2573" stroke-linecap="round" stroke-linejoin="round" stroke-miterlimit="10" width="2.179" height="1.925"/>
			
				<rect x="425.376" y="1761.512" fill="none" stroke="#703E17" stroke-width="0.2573" stroke-linecap="round" stroke-linejoin="round" stroke-miterlimit="10" width="2.18" height="1.925"/>
		</g>
		<g>
			<rect x="394.971" y="1712.875" fill="#CB713B" width="13.362" height="26.229"/>
			<rect x="399.126" y="1712.875" fill="#E7D5C6" width="4.207" height="7.869"/>
			<rect x="370.323" y="1712.875" fill="#E7944E" width="24.647" height="26.229"/>
			<polygon opacity="0.5" fill="#FDD6BF" points="371.288,1738.074 371.288,1713.906 394.004,1713.906 			"/>
			<rect x="399.622" y="1712.875" fill="#E6E7E8" width="4.06" height="7.58"/>
			<rect x="384.099" y="1730.932" fill="#703E17" width="9.095" height="1.243"/>
			<rect x="387.042" y="1733.294" fill="#703E17" width="6.152" height="1.243"/>
			
				<rect x="390.712" y="1735.284" fill="none" stroke="#703E17" stroke-width="0.2573" stroke-linecap="round" stroke-linejoin="round" stroke-miterlimit="10" width="2.18" height="1.926"/>
			
				<rect x="387.368" y="1735.284" fill="none" stroke="#703E17" stroke-width="0.2573" stroke-linecap="round" stroke-linejoin="round" stroke-miterlimit="10" width="2.177" height="1.926"/>
		</g>
		<g>
			<rect x="432.98" y="1712.875" fill="#CB713B" width="13.364" height="26.229"/>
			<rect x="437.137" y="1712.875" fill="#E7D5C6" width="4.207" height="7.869"/>
			<rect x="408.333" y="1712.875" fill="#E7944E" width="24.647" height="26.229"/>
			<polygon opacity="0.5" fill="#FDD6BF" points="409.3,1738.074 409.3,1713.906 432.013,1713.906 			"/>
			<rect x="437.633" y="1712.875" fill="#E6E7E8" width="4.06" height="7.58"/>
			<rect x="422.112" y="1730.932" fill="#703E17" width="9.092" height="1.243"/>
			<rect x="425.05" y="1733.294" fill="#703E17" width="6.154" height="1.243"/>
			
				<rect x="428.724" y="1735.284" fill="none" stroke="#703E17" stroke-width="0.2573" stroke-linecap="round" stroke-linejoin="round" stroke-miterlimit="10" width="2.179" height="1.926"/>
			
				<rect x="425.376" y="1735.284" fill="none" stroke="#703E17" stroke-width="0.2573" stroke-linecap="round" stroke-linejoin="round" stroke-miterlimit="10" width="2.18" height="1.926"/>
		</g>
		<g>
			<rect x="394.971" y="1765.332" fill="#CB713B" width="13.362" height="26.229"/>
			<rect x="399.126" y="1765.332" fill="#E7D5C6" width="4.207" height="7.866"/>
			<rect x="370.323" y="1765.332" fill="#E7944E" width="24.647" height="26.229"/>
			<polygon opacity="0.5" fill="#FDD6BF" points="371.288,1790.527 371.288,1766.359 394.004,1766.359 			"/>
			<rect x="399.622" y="1765.332" fill="#E6E7E8" width="4.06" height="7.576"/>
			<rect x="384.099" y="1783.387" fill="#703E17" width="9.095" height="1.242"/>
			<rect x="387.042" y="1785.75" fill="#703E17" width="6.152" height="1.24"/>
			
				<rect x="390.712" y="1787.738" fill="none" stroke="#703E17" stroke-width="0.2573" stroke-linecap="round" stroke-linejoin="round" stroke-miterlimit="10" width="2.18" height="1.928"/>
			
				<rect x="387.368" y="1787.738" fill="none" stroke="#703E17" stroke-width="0.2573" stroke-linecap="round" stroke-linejoin="round" stroke-miterlimit="10" width="2.177" height="1.928"/>
		</g>
		<g>
			<rect x="432.98" y="1765.332" fill="#CB713B" width="13.364" height="26.229"/>
			<rect x="437.137" y="1765.332" fill="#E7D5C6" width="4.207" height="7.866"/>
			<rect x="408.333" y="1765.332" fill="#E7944E" width="24.647" height="26.229"/>
			<polygon opacity="0.5" fill="#FDD6BF" points="409.3,1790.527 409.3,1766.359 432.013,1766.359 			"/>
			<rect x="437.633" y="1765.332" fill="#E6E7E8" width="4.06" height="7.576"/>
			<rect x="422.112" y="1783.387" fill="#703E17" width="9.092" height="1.242"/>
			<rect x="425.05" y="1785.75" fill="#703E17" width="6.154" height="1.24"/>
			
				<rect x="428.724" y="1787.738" fill="none" stroke="#703E17" stroke-width="0.2573" stroke-linecap="round" stroke-linejoin="round" stroke-miterlimit="10" width="2.179" height="1.928"/>
			
				<rect x="425.376" y="1787.738" fill="none" stroke="#703E17" stroke-width="0.2573" stroke-linecap="round" stroke-linejoin="round" stroke-miterlimit="10" width="2.18" height="1.928"/>
		</g>
	</g>
	<g>
		<g>
			<rect x="112.242" y="1694.478" fill="#D57D43" width="13.367" height="26.228"/>
			<rect x="116.4" y="1694.478" fill="#E7D5C6" width="4.208" height="7.868"/>
			<rect x="87.597" y="1694.478" fill="#F9A45A" width="24.645" height="26.228"/>
			<polygon opacity="0.5" fill="#FDD6BF" points="88.564,1719.678 88.564,1695.508 111.278,1695.508 			"/>
			<rect x="116.896" y="1694.478" fill="#E6E7E8" width="4.06" height="7.579"/>
			<rect x="101.372" y="1712.532" fill="#703E17" width="9.095" height="1.245"/>
			<rect x="104.311" y="1714.898" fill="#703E17" width="6.156" height="1.241"/>
			
				<rect x="107.988" y="1716.887" fill="none" stroke="#703E17" stroke-width="0.2573" stroke-linecap="round" stroke-linejoin="round" stroke-miterlimit="10" width="2.174" height="1.923"/>
			
				<rect x="104.641" y="1716.887" fill="none" stroke="#703E17" stroke-width="0.2573" stroke-linecap="round" stroke-linejoin="round" stroke-miterlimit="10" width="2.177" height="1.923"/>
		</g>
		<g>
			<rect x="112.242" y="1720.705" fill="#CB713B" width="13.367" height="26.228"/>
			<rect x="116.4" y="1720.705" fill="#E7D5C6" width="4.208" height="7.868"/>
			<rect x="87.597" y="1720.705" fill="#E7944E" width="24.645" height="26.228"/>
			<polygon opacity="0.5" fill="#FDD6BF" points="88.564,1745.906 88.564,1721.735 111.278,1721.735 			"/>
			<rect x="116.896" y="1720.705" fill="#E6E7E8" width="4.06" height="7.578"/>
			<rect x="101.372" y="1738.763" fill="#703E17" width="9.095" height="1.243"/>
			<rect x="104.311" y="1741.125" fill="#703E17" width="6.156" height="1.243"/>
			
				<rect x="107.988" y="1743.113" fill="none" stroke="#703E17" stroke-width="0.2573" stroke-linecap="round" stroke-linejoin="round" stroke-miterlimit="10" width="2.174" height="1.926"/>
			
				<rect x="104.641" y="1743.113" fill="none" stroke="#703E17" stroke-width="0.2573" stroke-linecap="round" stroke-linejoin="round" stroke-miterlimit="10" width="2.177" height="1.926"/>
		</g>
		<g>
			<rect x="150.253" y="1720.705" fill="#CB713B" width="13.364" height="26.228"/>
			<rect x="154.411" y="1720.705" fill="#E7D5C6" width="4.205" height="7.868"/>
			<rect x="125.608" y="1720.705" fill="#E7944E" width="24.645" height="26.228"/>
			<polygon opacity="0.5" fill="#FDD6BF" points="126.573,1745.906 126.573,1721.735 149.287,1721.735 			"/>
			<rect x="154.907" y="1720.705" fill="#E6E7E8" width="4.058" height="7.578"/>
			<rect x="139.386" y="1738.763" fill="#703E17" width="9.091" height="1.243"/>
			<rect x="142.32" y="1741.125" fill="#703E17" width="6.158" height="1.243"/>
			
				<rect x="145.997" y="1743.113" fill="none" stroke="#703E17" stroke-width="0.2573" stroke-linecap="round" stroke-linejoin="round" stroke-miterlimit="10" width="2.178" height="1.926"/>
			
				<rect x="142.65" y="1743.113" fill="none" stroke="#703E17" stroke-width="0.2573" stroke-linecap="round" stroke-linejoin="round" stroke-miterlimit="10" width="2.18" height="1.926"/>
		</g>
	</g>
</g>
</svg>
