<?xml version="1.0" encoding="utf-8"?>
<!-- Generator: Adobe Illustrator 16.0.0, SVG Export Plug-In . SVG Version: 6.00 Build 0)  -->
<!DOCTYPE svg PUBLIC "-//W3C//DTD SVG 1.1//EN" "http://www.w3.org/Graphics/SVG/1.1/DTD/svg11.dtd">
<svg version="1.1" id="Capa_1" xmlns="http://www.w3.org/2000/svg" xmlns:xlink="http://www.w3.org/1999/xlink" x="0px" y="0px"
	 width="512px" height="512px" viewBox="0 0 512 512" enable-background="new 0 0 512 512" xml:space="preserve">
<g>
	<g>
		<g>
			<path fill="#FC3C3D" d="M413.438,321.063c-24.25-24.252-53.113-42.203-84.607-53.07c33.729-23.231,55.89-62.111,55.89-106.074
				c0-70.976-57.743-128.72-128.72-128.72c-70.976,0-128.72,57.744-128.72,128.72c0,43.963,22.16,82.843,55.891,106.074
				c-31.494,10.867-60.357,28.818-84.608,53.07C56.509,363.115,33.349,419.027,33.349,478.5h34.79
				c0-103.588,84.274-187.862,187.862-187.862S443.862,374.912,443.862,478.5h34.789
				C478.651,419.027,455.491,363.115,413.438,321.063z M256,255.849c-51.793,0-93.931-42.137-93.931-93.931
				S204.207,67.987,256,67.987s93.931,42.136,93.931,93.931C349.931,213.711,307.793,255.849,256,255.849z"/>
		</g>
	</g>
</g>
</svg>
